<?xml version="1.0" encoding="utf-8"?>
<!-- Generator: Adobe Illustrator 17.0.0, SVG Export Plug-In . SVG Version: 6.00 Build 0)  -->
<!DOCTYPE svg PUBLIC "-//W3C//DTD SVG 1.1//EN" "http://www.w3.org/Graphics/SVG/1.1/DTD/svg11.dtd">
<svg version="1.1" id="Layer_1" xmlns="http://www.w3.org/2000/svg" xmlns:xlink="http://www.w3.org/1999/xlink" x="0px" y="0px"
	 width="15px" height="15px" viewBox="0 0 15 15" enable-background="new 0 0 15 15" xml:space="preserve">
<path d="M0.9,13.6v-3.3c0-0.2,0.1-0.4,0.2-0.7c0.1-0.3,0.2-0.5,0.4-0.7C1.6,8.7,1.8,8.5,2,8.3C2.2,8.1,2.4,8,2.6,8
	c0.1,0,0.3-0.1,0.6-0.1c0.3,0,0.6-0.1,0.9-0.1c0.3,0,0.6-0.1,0.9-0.1c0.3,0,0.5-0.1,0.7-0.1C5,7.2,4.6,6.8,4.3,6.2
	C4,5.7,3.9,5.1,3.9,4.5c0-0.5,0.1-1,0.3-1.4c0.2-0.4,0.4-0.8,0.8-1.1c0.3-0.3,0.7-0.6,1.1-0.8C6.5,1,7,0.9,7.5,0.9
	c0.5,0,1,0.1,1.4,0.3C9.3,1.4,9.7,1.6,10,1.9c0.3,0.3,0.6,0.7,0.8,1.1C11,3.5,11.1,4,11.1,4.5c0,0.6-0.1,1.2-0.4,1.7
	c-0.3,0.5-0.7,1-1.2,1.3c0.2,0,0.4,0.1,0.7,0.1c0.3,0,0.6,0.1,0.9,0.1c0.3,0,0.6,0.1,0.9,0.1c0.3,0,0.5,0.1,0.6,0.1
	C12.6,8,12.8,8.1,13,8.3c0.2,0.2,0.4,0.4,0.6,0.6c0.2,0.2,0.3,0.5,0.4,0.7c0.1,0.3,0.2,0.5,0.2,0.7v3.3c-0.1,0-0.1,0.1-0.2,0.1
	c-0.1,0.1-0.1,0.1-0.2,0.2c-0.1,0.1-0.2,0.1-0.2,0.1c-0.1,0-0.1,0.1-0.2,0.1H1.7c-0.2,0-0.3-0.1-0.4-0.2C1.2,13.8,1,13.7,0.9,13.6z"
	/>
</svg>
