<?xml version="1.0" encoding="utf-8"?>
<!-- Generator: Adobe Illustrator 17.0.0, SVG Export Plug-In . SVG Version: 6.00 Build 0)  -->
<!DOCTYPE svg PUBLIC "-//W3C//DTD SVG 1.1//EN" "http://www.w3.org/Graphics/SVG/1.1/DTD/svg11.dtd">
<svg version="1.1" id="Layer_1" xmlns="http://www.w3.org/2000/svg" xmlns:xlink="http://www.w3.org/1999/xlink" x="0px" y="0px"
	 width="15px" height="15px" viewBox="0 0 15 15" enable-background="new 0 0 15 15" xml:space="preserve">
<path d="M0.9,13.1V3.4c0-0.3,0.1-0.5,0.3-0.7c0.2-0.2,0.4-0.3,0.7-0.3h0.3V2.3c0-0.2,0-0.4,0.1-0.5c0.1-0.2,0.1-0.3,0.3-0.5
	C2.7,1.2,2.8,1.1,3.1,1c0.2-0.1,0.5-0.1,0.8-0.1s0.6,0,0.8,0.1C4.8,1.1,5,1.2,5.1,1.3c0.1,0.1,0.2,0.3,0.3,0.5
	C5.4,2,5.5,2.2,5.5,2.3v0.1h0.4V2.3c0-0.2,0-0.4,0.1-0.5s0.1-0.3,0.3-0.5C6.4,1.2,6.5,1.1,6.7,1c0.2-0.1,0.5-0.1,0.8-0.1
	c0.3,0,0.6,0,0.8,0.1c0.2,0.1,0.4,0.2,0.5,0.3C8.9,1.5,9,1.6,9,1.8C9.1,2,9.1,2.2,9.1,2.3v0.1h0.4V2.3c0-0.2,0-0.4,0.1-0.5
	c0.1-0.2,0.2-0.3,0.3-0.5C10,1.2,10.2,1.1,10.4,1c0.2-0.1,0.5-0.1,0.8-0.1c0.3,0,0.6,0,0.8,0.1c0.2,0.1,0.4,0.2,0.5,0.3
	c0.1,0.1,0.2,0.3,0.3,0.5c0.1,0.2,0.1,0.4,0.1,0.5v0.1h0.3c0.3,0,0.5,0.1,0.7,0.3c0.2,0.2,0.3,0.4,0.3,0.7v9.7
	c0,0.3-0.1,0.5-0.3,0.7c-0.2,0.2-0.4,0.3-0.7,0.3H1.9c-0.3,0-0.5-0.1-0.7-0.3C1,13.6,0.9,13.4,0.9,13.1z M2.2,7.9h2.4V5.8H2.2V7.9z
	 M2.2,10.4h2.4V8.2H2.2V10.4z M2.2,12.8h2.4v-2.1H2.2V12.8z M3.2,4.3c0,0.3,0.2,0.5,0.6,0.5c0.4,0,0.6-0.2,0.6-0.5V2.3
	c0-0.3-0.2-0.5-0.6-0.5C3.4,1.9,3.2,2,3.2,2.3V4.3z M4.9,7.9h2.4V5.8H4.9V7.9z M4.9,10.4h2.4V8.2H4.9V10.4z M4.9,12.8h2.4v-2.1H4.9
	V12.8z M6.9,4.3c0,0.2,0,0.3,0.1,0.4c0.1,0.1,0.3,0.1,0.5,0.1c0.2,0,0.4,0,0.5-0.1c0.1-0.1,0.1-0.2,0.1-0.4V2.3c0-0.2,0-0.3-0.1-0.4
	C7.9,1.9,7.7,1.9,7.5,1.9C7.3,1.9,7.1,1.9,7,2C6.9,2.1,6.9,2.2,6.9,2.3V4.3z M7.7,7.9h2.4V5.8H7.7V7.9z M7.7,10.4h2.4V8.2H7.7V10.4z
	 M7.7,12.8h2.4v-2.1H7.7V12.8z M10.4,7.9h2.4V5.8h-2.4V7.9z M10.4,10.4h2.4V8.2h-2.4V10.4z M10.4,12.8h2.4v-2.1h-2.4V12.8z
	 M10.5,4.3c0,0.3,0.2,0.5,0.6,0.5c0.4,0,0.6-0.2,0.6-0.5V2.3c0-0.3-0.2-0.5-0.6-0.5c-0.4,0-0.6,0.2-0.6,0.5V4.3z"/>
</svg>
