<?xml version="1.0" encoding="utf-8"?>
<!-- Generator: Adobe Illustrator 17.0.0, SVG Export Plug-In . SVG Version: 6.00 Build 0)  -->
<!DOCTYPE svg PUBLIC "-//W3C//DTD SVG 1.1//EN" "http://www.w3.org/Graphics/SVG/1.1/DTD/svg11.dtd">
<svg version="1.1" id="Layer_1" xmlns="http://www.w3.org/2000/svg" xmlns:xlink="http://www.w3.org/1999/xlink" x="0px" y="0px"
	 width="18px" height="15px" viewBox="0 0 18 15" enable-background="new 0 0 18 15" xml:space="preserve">
<path d="M0.9,6.7c0-0.8,0.2-1.6,0.6-2.3C2,3.6,2.5,3,3.3,2.5C4,2,4.9,1.5,5.8,1.2s2-0.5,3.1-0.5c1.1,0,2.2,0.2,3.2,0.5
	c1,0.3,1.8,0.7,2.6,1.3C15.5,3,16,3.6,16.5,4.4c0.4,0.7,0.6,1.5,0.6,2.3c0,0.8-0.2,1.6-0.6,2.3c-0.4,0.7-1,1.3-1.7,1.9
	c-0.7,0.5-1.6,1-2.6,1.3c-1,0.3-2,0.5-3.2,0.5c-0.5,0-1,0-1.5-0.1c-1,0.8-2.2,1.3-3.5,1.6c-0.1,0-0.3,0-0.4,0.1
	c-0.1,0-0.3,0-0.5,0.1c-0.1,0-0.2,0-0.2-0.1c-0.1,0-0.1-0.1-0.1-0.2c0-0.1,0-0.2,0-0.2c0.1-0.1,0.1-0.1,0.2-0.2
	c0.1-0.1,0.3-0.3,0.4-0.4c0.1-0.1,0.2-0.3,0.3-0.4c0.1-0.2,0.2-0.4,0.3-0.6C4,12,4,11.7,4.1,11.4c-1-0.6-1.8-1.2-2.3-2
	C1.2,8.5,0.9,7.6,0.9,6.7z"/>
</svg>
