<?xml version="1.0" encoding="utf-8"?>
<!-- Generator: Adobe Illustrator 17.0.0, SVG Export Plug-In . SVG Version: 6.00 Build 0)  -->
<!DOCTYPE svg PUBLIC "-//W3C//DTD SVG 1.1//EN" "http://www.w3.org/Graphics/SVG/1.1/DTD/svg11.dtd">
<svg version="1.1" id="Layer_1" xmlns="http://www.w3.org/2000/svg" xmlns:xlink="http://www.w3.org/1999/xlink" x="0px" y="0px"
	 width="30px" height="30px" viewBox="0 0 30 30" enable-background="new 0 0 30 30" xml:space="preserve">
<path class="sm-icon" d="M0,26.2V3.8c0-0.5,0.1-1,0.3-1.5c0.2-0.5,0.5-0.9,0.8-1.2c0.3-0.3,0.7-0.6,1.2-0.8C2.7,0.1,3.2,0,3.7,0h22.5
	c1,0,1.9,0.4,2.7,1.1C29.6,1.8,30,2.7,30,3.8v22.5c0,0.5-0.1,1-0.3,1.5c-0.2,0.5-0.5,0.8-0.8,1.2c-0.3,0.3-0.7,0.6-1.2,0.8
	c-0.5,0.2-1,0.3-1.5,0.3H3.7c-0.5,0-1-0.1-1.4-0.3c-0.4-0.2-0.8-0.5-1.2-0.8c-0.3-0.3-0.6-0.7-0.8-1.2C0.1,27.3,0,26.8,0,26.2z
	 M3.9,19.1c1,1.4,2.3,2.5,3.9,3.3c1.5,0.8,3.2,1.1,5.1,1.1c1.3,0,2.5-0.2,3.6-0.5c1.2-0.3,2.2-0.8,3.1-1.4c0.9-0.6,1.7-1.3,2.4-2.2
	c0.7-0.9,1.2-1.8,1.5-2.8c1.1-0.1,1.9-0.4,2.5-1.1c0.2-0.2,0.2-0.4,0.1-0.6c-0.1-0.2-0.3-0.3-0.6-0.3h-0.1c0.3-0.3,0.5-0.6,0.6-0.9
	c0.1-0.3,0.1-0.5-0.2-0.6c-0.2-0.2-0.4-0.2-0.6,0c-0.1,0.1-0.3,0.1-0.6,0.2c-0.3,0.1-0.6,0.1-0.9,0.1c-0.1,0-0.1,0-0.1,0
	c0,0-0.1,0-0.1,0c0,0,0-0.1,0-0.1c0,0,0-0.1,0-0.1c-0.2-0.8-0.6-1.5-1.1-2.2c-0.5-0.6-1.1-1.1-1.8-1.4c0.1-0.1,0.1-0.1,0.1-0.2
	c0-0.1,0.1-0.1,0.1-0.2c0.1-0.2,0.1-0.4,0-0.6c0-0.1-0.1-0.2-0.2-0.3c-0.1-0.1-0.4-0.2-0.7-0.2c0-0.1-0.1-0.1-0.1-0.2
	c-0.2-0.2-0.3-0.2-0.5-0.2c-0.3,0.1-0.6,0.1-1,0.3l0,0c-0.2-0.1-0.4-0.1-0.6,0c-0.8,0.5-1.4,1.1-1.9,2c-0.5,0.8-1,1.7-1.3,2.6
	c-0.5-0.4-0.8-0.7-1.1-0.8c-0.8-0.5-1.6-0.9-2.5-1.2c-0.9-0.4-1.9-0.8-3-1.2c-0.2-0.1-0.3,0-0.5,0.1C7.1,9.5,7,9.6,7,9.8
	c0,0.4,0,0.7,0.2,1.1c0.1,0.4,0.4,0.8,0.8,1.2c-0.3,0.1-0.5,0.3-0.4,0.6c0.2,0.9,0.6,1.5,1.3,2L8.6,15c-0.2,0.2-0.2,0.4-0.1,0.6
	c0.1,0.2,0.2,0.4,0.5,0.7s0.7,0.6,1.3,0.8c-0.1,0.2-0.1,0.3-0.1,0.4c0,0.1,0,0.2,0,0.3c0.1,0.4,0.3,0.8,0.8,1
	c-0.5,0.3-1,0.5-1.5,0.7c-0.5,0.1-1.1,0.2-1.7,0.1c-0.6,0-1.1-0.2-1.6-0.4c-0.5-0.2-1-0.5-1.4-0.9c-0.1-0.1-0.2-0.2-0.4-0.2
	c-0.1,0-0.3,0.1-0.4,0.2C3.7,18.6,3.7,18.8,3.9,19.1z"/>
</svg>
